%YAML 1.1
%TAG !u! tag:unity3d.com,2011:
--- !u!1045 &1
EditorBuildSettings:
  m_ObjectHideFlags: 0
  serializedVersion: 2
  m_Scenes:
  - enabled: 1
    path: Assets/Scenes/MainMenu.unity
    guid: e56b34e4f44989f44a00e8260769ee5a
  - enabled: 1
    path: Assets/Scenes/PlayerDemo.unity
    guid: 2cda990e2423bbf4892e6590ba056729
  - enabled: 1
    path: Assets/Scenes/EndScreen.unity
    guid: 150ab8d1256dfb24882ec1462b3e43b1
  m_configObjects: {}
